%YAML 1.1
%TAG !u! tag:unity3d.com,2011:
--- !u!1 &7671881394324779846
GameObject:
  m_ObjectHideFlags: 0
  m_CorrespondingSourceObject: {fileID: 0}
  m_PrefabInstance: {fileID: 0}
  m_PrefabAsset: {fileID: 0}
  serializedVersion: 6
  m_Component:
  - component: {fileID: 7671881394324779847}
  - component: {fileID: 8321575097263248675}
  m_Layer: 0
  m_Name: EmptySpell
  m_TagString: Untagged
  m_Icon: {fileID: 0}
  m_NavMeshLayer: 0
  m_StaticEditorFlags: 0
  m_IsActive: 1
--- !u!4 &7671881394324779847
Transform:
  m_ObjectHideFlags: 0
  m_CorrespondingSourceObject: {fileID: 0}
  m_PrefabInstance: {fileID: 0}
  m_PrefabAsset: {fileID: 0}
  m_GameObject: {fileID: 7671881394324779846}
  m_LocalRotation: {x: 0, y: 0, z: 0, w: 1}
  m_LocalPosition: {x: -1.0585316, y: -0.030394085, z: 30.850237}
  m_LocalScale: {x: 1, y: 1, z: 1}
  m_Children: []
  m_Father: {fileID: 0}
  m_RootOrder: 0
  m_LocalEulerAnglesHint: {x: 0, y: 0, z: 0}
--- !u!114 &8321575097263248675
MonoBehaviour:
  m_ObjectHideFlags: 0
  m_CorrespondingSourceObject: {fileID: 0}
  m_PrefabInstance: {fileID: 0}
  m_PrefabAsset: {fileID: 0}
  m_GameObject: {fileID: 7671881394324779846}
  m_Enabled: 1
  m_EditorHideFlags: 0
  m_Script: {fileID: 11500000, guid: 2dd0ad35abc0422786c088401ab0889f, type: 3}
  m_Name: 
  m_EditorClassIdentifier: 
  m_SpellName: 
  m_NeedFieldOfView: 0
  m_RangeStart: 1
  m_RangeEnd: 0
  m_SpellUsageCount: 100000
  m_SpellSprite: {fileID: 0}
  m_DirectDamagesAndHealEnabled: 0
  m_PhysicalDamages: 0
  m_HealPoints: 0
  m_PoisonEnabled: 0
  m_PoisonDuration: 0
  m_PoisonDamagesPerHit: 0
  m_PoisonHitEach: 0
